{"frames": {

"back-btn-white":
{
	"frame": {"x":1,"y":1612,"w":247,"h":56},
	"rotated": false,
	"trimmed": false,
	"spriteSourceSize": {"x":0,"y":0,"w":247,"h":56},
	"sourceSize": {"w":247,"h":56}
},
"ball":
{
	"frame": {"x":774,"y":1405,"w":291,"h":291},
	"rotated": false,
	"trimmed": true,
	"spriteSourceSize": {"x":5,"y":5,"w":291,"h":291},
	"sourceSize": {"w":300,"h":300}
},
"clock-bgd":
{
	"frame": {"x":294,"y":1554,"w":95,"h":115},
	"rotated": false,
	"trimmed": false,
	"spriteSourceSize": {"x":0,"y":0,"w":95,"h":115},
	"sourceSize": {"w":95,"h":115}
},
"clock-hand":
{
	"frame": {"x":250,"y":1612,"w":24,"h":44},
	"rotated": false,
	"trimmed": false,
	"spriteSourceSize": {"x":0,"y":0,"w":24,"h":44},
	"sourceSize": {"w":24,"h":44}
},
"have-another-go-btn":
{
	"frame": {"x":1,"y":1670,"w":247,"h":56},
	"rotated": false,
	"trimmed": false,
	"spriteSourceSize": {"x":0,"y":0,"w":247,"h":56},
	"sourceSize": {"w":247,"h":56}
},
"how-to-play-bgd":
{
	"frame": {"x":1,"y":1,"w":640,"h":700},
	"rotated": false,
	"trimmed": false,
	"spriteSourceSize": {"x":0,"y":0,"w":640,"h":700},
	"sourceSize": {"w":640,"h":700}
},
"how-to-play-btn":
{
	"frame": {"x":1316,"y":1463,"w":199,"h":56},
	"rotated": false,
	"trimmed": false,
	"spriteSourceSize": {"x":0,"y":0,"w":199,"h":56},
	"sourceSize": {"w":199,"h":56}
},
"im-ready-btn":
{
	"frame": {"x":1,"y":1728,"w":247,"h":56},
	"rotated": false,
	"trimmed": false,
	"spriteSourceSize": {"x":0,"y":0,"w":247,"h":56},
	"sourceSize": {"w":247,"h":56}
},
"left-btn":
{
	"frame": {"x":250,"y":1671,"w":95,"h":95},
	"rotated": false,
	"trimmed": false,
	"spriteSourceSize": {"x":0,"y":0,"w":95,"h":95},
	"sourceSize": {"w":95,"h":95}
},
"lose-bgd":
{
	"frame": {"x":643,"y":1,"w":640,"h":700},
	"rotated": false,
	"trimmed": false,
	"spriteSourceSize": {"x":0,"y":0,"w":640,"h":700},
	"sourceSize": {"w":640,"h":700}
},
"main-menu-btn":
{
	"frame": {"x":1067,"y":1405,"w":247,"h":56},
	"rotated": false,
	"trimmed": false,
	"spriteSourceSize": {"x":0,"y":0,"w":247,"h":56},
	"sourceSize": {"w":247,"h":56}
},
"menu-bgd":
{
	"frame": {"x":1285,"y":1,"w":640,"h":700},
	"rotated": false,
	"trimmed": false,
	"spriteSourceSize": {"x":0,"y":0,"w":640,"h":700},
	"sourceSize": {"w":640,"h":700}
},
"mini-game-bgd":
{
	"frame": {"x":1,"y":703,"w":640,"h":700},
	"rotated": false,
	"trimmed": false,
	"spriteSourceSize": {"x":0,"y":0,"w":640,"h":700},
	"sourceSize": {"w":640,"h":700}
},
"play-again-btn-white":
{
	"frame": {"x":1316,"y":1405,"w":247,"h":56},
	"rotated": false,
	"trimmed": false,
	"spriteSourceSize": {"x":0,"y":0,"w":247,"h":56},
	"sourceSize": {"w":247,"h":56}
},
"play-now-btn-white":
{
	"frame": {"x":1067,"y":1463,"w":247,"h":56},
	"rotated": false,
	"trimmed": false,
	"spriteSourceSize": {"x":0,"y":0,"w":247,"h":56},
	"sourceSize": {"w":247,"h":56}
},
"play-now-btn":
{
	"frame": {"x":1067,"y":1521,"w":199,"h":56},
	"rotated": false,
	"trimmed": false,
	"spriteSourceSize": {"x":0,"y":0,"w":199,"h":56},
	"sourceSize": {"w":199,"h":56}
},
"prizes-bgd":
{
	"frame": {"x":643,"y":703,"w":640,"h":700},
	"rotated": false,
	"trimmed": false,
	"spriteSourceSize": {"x":0,"y":0,"w":640,"h":700},
	"sourceSize": {"w":640,"h":700}
},
"prizes-btn":
{
	"frame": {"x":1268,"y":1521,"w":199,"h":56},
	"rotated": false,
	"trimmed": false,
	"spriteSourceSize": {"x":0,"y":0,"w":199,"h":56},
	"sourceSize": {"w":199,"h":56}
},
"right-btn":
{
	"frame": {"x":1771,"y":1651,"w":95,"h":95},
	"rotated": false,
	"trimmed": false,
	"spriteSourceSize": {"x":0,"y":0,"w":95,"h":95},
	"sourceSize": {"w":95,"h":95}
},
"tap-to-hit-away":
{
	"frame": {"x":1,"y":1405,"w":440,"h":147},
	"rotated": false,
	"trimmed": false,
	"spriteSourceSize": {"x":0,"y":0,"w":440,"h":147},
	"sourceSize": {"w":440,"h":147}
},
"tight-rope-woman":
{
	"frame": {"x":443,"y":1405,"w":329,"h":385},
	"rotated": false,
	"trimmed": false,
	"spriteSourceSize": {"x":0,"y":0,"w":329,"h":385},
	"sourceSize": {"w":329,"h":385}
},
"tight-rope-won-bgd":
{
	"frame": {"x":1285,"y":703,"w":640,"h":700},
	"rotated": false,
	"trimmed": false,
	"spriteSourceSize": {"x":0,"y":0,"w":640,"h":700},
	"sourceSize": {"w":640,"h":700}
},
"tight-rope":
{
	"frame": {"x":1857,"y":1405,"w":41,"h":242},
	"rotated": false,
	"trimmed": false,
	"spriteSourceSize": {"x":0,"y":0,"w":41,"h":242},
	"sourceSize": {"w":41,"h":242}
},
"trapeze-woman":
{
	"frame": {"x":1565,"y":1405,"w":204,"h":286},
	"rotated": false,
	"trimmed": false,
	"spriteSourceSize": {"x":0,"y":0,"w":204,"h":286},
	"sourceSize": {"w":204,"h":286}
},
"trapeze":
{
	"frame": {"x":1771,"y":1405,"w":84,"h":244},
	"rotated": false,
	"trimmed": false,
	"spriteSourceSize": {"x":0,"y":0,"w":84,"h":244},
	"sourceSize": {"w":84,"h":244}
},
"want-to-play-again-btn":
{
	"frame": {"x":1,"y":1554,"w":291,"h":56},
	"rotated": false,
	"trimmed": false,
	"spriteSourceSize": {"x":0,"y":0,"w":291,"h":56},
	"sourceSize": {"w":291,"h":56}
}},
"meta": {
	"app": "https://www.codeandweb.com/texturepacker",
	"version": "1.0",
	"image": "game-assets-1.png",
	"format": "RGBA8888",
	"size": {"w":1926,"h":1791},
	"scale": "1",
	"smartupdate": "$TexturePacker:SmartUpdate:8d4452d7c479b1a01abdcc3bd5f81ad0:fc470755a9623e722ebed6c52cc864f2:a9647caf9d8b76d5477436bdb36d8a84$"
}
}
